{
  "rows": [
    {
      "LogId": "a42c30ea-7227-4e53-a236-91554d50f4fc",
      "CategoryId": 1,
      "SourceObjectId": null,
      "SourceContentJson": null,
      "OperateTime": "2020-12-27 15:31:19",
      "OperateUserId": "System",
      "OperateAccount": "System",
      "OperateTypeId": "1",
      "OperateType": "登录",
      "ModuleId": null,
      "Module": "智慧消防物联网云平台",
      "IPAddress": "117.176.226.60",
      "IPAddressName": "四川省成都市 移动",
      "Host": "",
      "Browser": "Chrome 87.0",
      "ExecuteResult": 1,
      "ExecuteResultJson": "登录成功",
      "Description": null,
      "DeleteMark": 0,
      "EnabledMark": 1
    }
  ],
  "total": 1,
  "page": 1,
  "records": 1,
  "costtime": "84"
}