[
  {
    "id": "b4b6df9f-8e7f-4cfe-80c0-c8898624fa49",
    "text": "消防管理",
    "value": "FireManage",
    "isTree": "0",
    "parentnodes": "0",
    "showcheck": false,
    "isexpand": true,
    "complete": true,
    "hasChildren": true,
    "ChildNodes": [
      {
        "id": "9c51eea7-8d58-42a5-9d79-c3d43457b1ec",
        "text": "告警状态",
        "value": "WarnStatus",
        "isTree": "0",
        "parentnodes": "b4b6df9f-8e7f-4cfe-80c0-c8898624fa49",
        "showcheck": false,
        "isexpand": true,
        "complete": true,
        "hasChildren": false,
        "ChildNodes": []
      },
      {
        "id": "d55baabf-294d-4891-a95b-9c22c660eea2",
        "text": "维修状态",
        "value": "RepStatus",
        "isTree": "0",
        "parentnodes": "b4b6df9f-8e7f-4cfe-80c0-c8898624fa49",
        "showcheck": false,
        "isexpand": true,
        "complete": true,
        "hasChildren": false,
        "ChildNodes": []
      },
      {
        "id": "5c76c16c-3edf-4fbd-a2f0-cbbf337b45c5",
        "text": "设备型号",
        "value": "MeterType",
        "isTree": "0",
        "parentnodes": "b4b6df9f-8e7f-4cfe-80c0-c8898624fa49",
        "showcheck": false,
        "isexpand": true,
        "complete": true,
        "hasChildren": true,
        "ChildNodes": [
          {
            "id": "c1a5086e-93ac-491e-805c-0418de626b6a",
            "text": "烟感型号",
            "value": "烟感",
            "isTree": "0",
            "parentnodes": "5c76c16c-3edf-4fbd-a2f0-cbbf337b45c5",
            "showcheck": false,
            "isexpand": true,
            "complete": true,
            "hasChildren": false,
            "ChildNodes": []
          },
          {
            "id": "01bd70e8-d1da-4bfd-8ab1-8b4d7086e937",
            "text": "电气火灾型号",
            "value": "电气火灾",
            "isTree": "0",
            "parentnodes": "5c76c16c-3edf-4fbd-a2f0-cbbf337b45c5",
            "showcheck": false,
            "isexpand": true,
            "complete": true,
            "hasChildren": false,
            "ChildNodes": []
          }
        ]
      },
      {
        "id": "c1fd575a-6dc3-4db0-ba42-a264f87a3b9e",
        "text": "通讯类型",
        "value": "ConnType",
        "isTree": "0",
        "parentnodes": "b4b6df9f-8e7f-4cfe-80c0-c8898624fa49",
        "showcheck": false,
        "isexpand": true,
        "complete": true,
        "hasChildren": false,
        "ChildNodes": []
      },
      {
        "id": "6eb3ebad-dc62-4fe8-8712-c48cbda0c1a5",
        "text": "产品类型",
        "value": "ProductType",
        "isTree": "0",
        "parentnodes": "b4b6df9f-8e7f-4cfe-80c0-c8898624fa49",
        "showcheck": false,
        "isexpand": true,
        "complete": true,
        "hasChildren": false,
        "ChildNodes": []
      }
    ]
  }
]